<svg width="48" height="48" viewBox="0 0 48 48" fill="none" xmlns="http://www.w3.org/2000/svg">
<g clip-path="url(#clip0)">
<circle cx="18" cy="41" r="15" fill="#FFB179"/>
<path d="M47.7775 11.1901C47.5994 10.98 47.3379 10.8589 47.0625 10.8589H9.76322L8.49159 4.56267C8.40328 4.12532 8.01891 3.81079 7.57266 3.81079H0.9375C0.419719 3.81079 0 4.23051 0 4.74829C0 5.26607 0.419719 5.68579 0.9375 5.68579H6.8055L13.0066 36.3884C12.0504 37.2009 11.4426 38.4125 11.4426 39.7635C11.4426 42.2038 13.4255 44.1893 15.8629 44.1893C18.3003 44.1893 20.2833 42.2039 20.2833 39.7635C20.2833 38.8144 19.9833 37.9342 19.4734 37.2128H33.8707C33.3607 37.9342 33.0608 38.8144 33.0608 39.7635C33.0608 42.2038 35.0437 44.1893 37.4811 44.1893C39.9185 44.1893 41.9015 42.2039 41.9015 39.7635C41.9015 38.811 41.5993 37.9278 41.086 37.2049C41.5462 37.1451 41.9015 36.7517 41.9015 36.2753C41.9015 35.7575 41.4818 35.3378 40.964 35.3378H14.7072L14.308 33.3615H40.1872C42.6499 33.3615 44.7295 31.5982 45.1324 29.1688L47.9873 11.9498C48.0324 11.678 47.9557 11.4002 47.7775 11.1901ZM18.4083 39.7635C18.4083 41.17 17.2664 42.3143 15.8629 42.3143C14.4593 42.3143 13.3176 41.1701 13.3176 39.7635C13.3176 38.357 14.4594 37.2128 15.8629 37.2128C17.2665 37.2128 18.4083 38.3571 18.4083 39.7635ZM37.4812 42.3143C36.0776 42.3143 34.9358 41.1701 34.9358 39.7635C34.9358 38.357 36.0777 37.2128 37.4812 37.2128C38.8847 37.2128 40.0266 38.3571 40.0266 39.7635C40.0266 41.17 38.8847 42.3143 37.4812 42.3143ZM43.2827 28.8622C43.0306 30.3829 41.7287 31.4866 40.1872 31.4866H13.9295L10.142 12.734H45.9568L43.2827 28.8622Z" fill="#E66400"/>
<path d="M25.6795 28.4319C25.7457 28.8937 26.1411 29.2365 26.6075 29.2365H30.0677C30.5341 29.2365 30.9295 28.8937 30.9957 28.4319L32.7688 16.0543C32.8073 15.7853 32.7272 15.5126 32.5491 15.3072C32.3711 15.1019 32.1126 14.9839 31.8408 14.9839H24.8346C24.5628 14.9839 24.3043 15.1019 24.1262 15.3072C23.9481 15.5126 23.868 15.7853 23.9065 16.0543L25.6795 28.4319ZM30.7594 16.8589L29.2549 27.3615H27.4203L25.9159 16.8589H30.7594Z" fill="#E66400"/>
<path d="M34.8027 29.2365H39.3826C39.8212 29.2365 40.201 28.9326 40.2972 28.5047L43.0808 16.1271C43.1433 15.8493 43.0761 15.5581 42.8981 15.3358C42.7203 15.1134 42.4508 14.984 42.1661 14.984H36.5758C36.1094 14.984 35.714 15.3269 35.6478 15.7886L33.8747 28.1662C33.8361 28.4352 33.9163 28.7079 34.0943 28.9133C34.2725 29.1186 34.5309 29.2365 34.8027 29.2365ZM37.3886 16.8589H40.9944L38.6325 27.3615H35.8841L37.3886 16.8589Z" fill="#E66400"/>
<path d="M13.5905 16.107L16.0904 28.4846C16.1787 28.922 16.5631 29.2365 17.0094 29.2365H21.8728C22.1446 29.2365 22.4031 29.1185 22.5812 28.9132C22.7592 28.7077 22.8394 28.4351 22.8009 28.1661L21.0278 15.7884C20.9616 15.3267 20.5661 14.9839 20.0997 14.9839H14.5094C14.2283 14.9839 13.9619 15.1101 13.7839 15.3277C13.6058 15.5454 13.5348 15.8314 13.5905 16.107ZM19.287 16.8589L20.7915 27.3615H17.7765L15.6553 16.8589H19.287Z" fill="#E66400"/>
</g>
<defs>
<clipPath id="clip0">
<rect width="48" height="48" fill="white"/>
</clipPath>
</defs>
</svg>
