<svg width="48" height="48" viewBox="0 0 48 48" fill="none" xmlns="http://www.w3.org/2000/svg">
<g clip-path="url(#clip0)">
<circle cx="24" cy="39" r="17" fill="#FFB179"/>
<path d="M45.6728 38.4H0.8C0.3584 38.4 0 38.7584 0 39.2V42.4C0 45.488 2.512 48 5.6 48H29.6C32.688 48 35.2 45.488 35.2 42.4V40H37.704C38.0368 41.4048 39.2168 42.4776 40.7184 42.6144L45.4624 43.0456C45.532 43.052 45.6024 43.0552 45.672 43.0552C46.2496 43.0552 46.812 42.8392 47.2416 42.4472C47.7232 42.0064 48 41.38 48 40.7272C48 39.444 46.956 38.4 45.6728 38.4ZM33.6 42.4C33.6 44.6056 31.8056 46.4 29.6 46.4H5.6C3.3944 46.4 1.6 44.6056 1.6 42.4V40H33.6V42.4ZM46.1632 41.2648C46.0112 41.404 45.8152 41.4728 45.6072 41.4512L40.8632 41.02C40.2 40.96 39.652 40.56 39.3816 40H45.6728C46.0736 40 46.4 40.3264 46.4 40.7272C46.4 40.9344 46.316 41.1256 46.1632 41.2648Z" fill="#E56400"/>
<path d="M7.2002 11.2C7.8338 11.2 8.37699 11.104 8.83939 10.9528L8.04099 13.3464C7.95939 13.5904 8.001 13.8584 8.1514 14.0672C8.3018 14.2768 8.5434 14.4 8.80019 14.4H16.8002C17.057 14.4 17.2986 14.2768 17.449 14.0672C17.5994 13.8584 17.6402 13.5904 17.5594 13.3464L16.761 10.9528C17.2234 11.104 17.7666 11.2 18.4002 11.2C20.3242 11.2 22.4002 9.3648 22.4002 6.4C22.4002 3.3176 19.3962 0 12.8002 0C6.2042 0 3.2002 3.3176 3.2002 6.4C3.2002 9.3648 5.2762 11.2 7.2002 11.2ZM12.8002 1.6C19.1282 1.6 20.8002 4.74 20.8002 6.4C20.8002 8.3768 19.5546 9.6 18.4002 9.6C16.5618 9.6 15.9362 8.4792 15.9162 8.4424C15.7282 8.0664 15.2826 7.9 14.8946 8.0608C14.5066 8.2216 14.309 8.6544 14.4418 9.0528L15.6906 12.8H9.90979L11.1594 9.0528C11.2906 8.6592 11.0954 8.236 10.7146 8.0712C10.3338 7.9056 9.8866 8.0664 9.6898 8.4312C9.6642 8.4792 9.0386 9.6 7.2002 9.6C6.0458 9.6 4.8002 8.3768 4.8002 6.4C4.8002 4.74 6.4722 1.6 12.8002 1.6Z" fill="#E56400"/>
<path d="M24.469 22.4793L21.0746 25.8745C19.8658 27.0833 19.2002 28.6905 19.2002 30.4001C19.2002 32.1097 19.8658 33.7169 21.0746 34.9257C22.2834 36.1345 23.8906 36.8001 25.6002 36.8001C27.3098 36.8001 28.917 36.1345 30.1258 34.9257L38.045 27.0065C41.1642 23.8873 41.1642 18.8121 38.045 15.6929C34.9258 12.5737 29.8498 12.5745 26.7314 15.6929C24.9434 17.4801 24.1146 19.9897 24.469 22.4793ZM26.1122 22.5985C25.6962 20.4953 26.3506 18.3361 27.8626 16.8241C30.3586 14.3289 34.4178 14.3289 36.9138 16.8241C39.409 19.3193 39.409 23.3801 36.9138 25.8753L28.9946 33.7945C28.0874 34.7009 26.8826 35.2001 25.6002 35.2001C24.3178 35.2001 23.113 34.7009 22.2058 33.7945C21.2986 32.8881 20.8002 31.6825 20.8002 30.4001C20.8002 29.1177 21.2994 27.9129 22.2058 27.0057L25.8922 23.3185C26.0818 23.1305 26.1642 22.8601 26.1122 22.5985Z" fill="#E56400"/>
<path d="M32.9539 22.052C33.5947 22.052 34.1979 21.8024 34.6507 21.3496C35.1043 20.896 35.3539 20.2936 35.3539 19.652C35.3539 19.0104 35.1043 18.408 34.6515 17.9552C34.1987 17.5024 34.6515 17.9552 34.6515 17.9552C33.7451 17.0488 32.1643 17.0488 31.2579 17.9552C30.8043 18.4088 30.5547 19.0112 30.5547 19.6528C30.5547 20.2944 30.8043 20.8968 31.2571 21.3496C31.7107 21.8024 32.3131 22.052 32.9539 22.052ZM32.3891 19.0864C32.5395 18.9352 32.7403 18.852 32.9547 18.852C33.1691 18.852 33.3691 18.9352 33.5203 19.0864C33.6715 19.2368 33.7547 19.4376 33.7547 19.652C33.7547 19.8664 33.6715 20.0664 33.5203 20.2176C33.2187 20.52 32.6915 20.52 32.3891 20.2176C32.2379 20.0672 32.1547 19.8664 32.1547 19.652C32.1547 19.4376 32.2371 19.2376 32.3891 19.0864Z" fill="#E56400"/>
<path d="M35.2002 1.6V0C30.789 0 27.2002 3.5888 27.2002 8H28.8002C28.8002 4.4712 31.6714 1.6 35.2002 1.6Z" fill="#E56400"/>
<path d="M3.9998 16.8H5.5998C5.5998 14.1528 3.447 12 0.799805 12V13.6C2.5646 13.6 3.9998 15.0352 3.9998 16.8Z" fill="#E56400"/>
<path d="M19.2002 19.2H20.8002C20.8002 16.9944 22.5946 15.2 24.8002 15.2V13.6C21.7122 13.6 19.2002 16.112 19.2002 19.2Z" fill="#E56400"/>
<path d="M36.7998 0H38.3998V1.6H36.7998V0Z" fill="#E56400"/>
<path d="M32 35.2H33.6V36.7999H32V35.2Z" fill="#E56400"/>
<path d="M1.17148 33.5024C1.92668 34.2584 2.93148 34.6744 4.00028 34.6744C5.06908 34.6744 6.07308 34.2584 6.82908 33.5024C6.99148 33.34 7.13948 33.1576 7.27868 32.9512C8.05708 32.8648 8.77628 32.544 9.37788 32.0424L12.4339 35.712C12.5779 35.8848 12.7875 35.9888 13.0123 35.9992C13.0243 36 13.0363 36 13.0483 36C13.2603 36 13.4635 35.916 13.6139 35.7656L18.1419 31.2376C18.3011 31.0784 18.3859 30.86 18.3755 30.636C18.3651 30.4112 18.2611 30.2016 18.0891 30.0576L14.4219 26.9976C14.9219 26.396 15.2427 25.6776 15.3275 24.9016C15.5347 24.7632 15.7171 24.6144 15.8795 24.452C17.4395 22.8928 17.4395 20.3544 15.8795 18.7952C15.1243 18.0392 14.1195 17.6232 13.0507 17.6232C12.2315 17.6232 11.4491 17.868 10.7883 18.3232C10.1275 17.868 9.34508 17.6232 8.52508 17.6232C7.45708 17.6232 6.45228 18.0392 5.69708 18.7944C5.53548 18.956 5.38668 19.1384 5.24748 19.3464C4.34828 19.4456 3.51628 19.8432 2.86828 20.492C2.21948 21.1408 1.82188 21.9728 1.72268 22.8712C1.51468 23.0096 1.33228 23.1584 1.17068 23.3208C-0.212521 24.7032 -0.368521 26.8544 0.700279 28.412C-0.367721 29.9688 -0.210921 32.12 1.17148 33.5024ZM13.1019 34.0152L10.3963 30.7656C10.7507 30.048 10.8899 29.2312 10.7763 28.424L10.8003 28.4C11.6107 28.5144 12.4291 28.3736 13.1475 28.0176L16.3923 30.7256L13.1019 34.0152ZM2.30268 27.8464C1.36748 26.9104 1.36748 25.388 2.30268 24.452C2.44988 24.3048 2.63228 24.1752 2.87628 24.0448C3.13788 23.9048 3.30108 23.6312 3.29868 23.3344C3.29548 22.6872 3.54428 22.08 4.00028 21.6232C4.45308 21.1712 5.05468 20.9224 5.69788 20.9224H5.71628C6.01148 20.9224 6.28268 20.76 6.42188 20.5C6.55228 20.256 6.68188 20.0744 6.82908 19.9272C7.73628 19.02 9.31628 19.02 10.2235 19.9272C10.5235 20.2272 11.0547 20.2272 11.3547 19.9272C12.2619 19.02 13.8419 19.02 14.7491 19.9272C15.6843 20.8632 15.6843 22.3856 14.7491 23.3216C14.6011 23.4696 14.4195 23.5984 14.1771 23.728C13.9147 23.868 13.7515 24.1416 13.7531 24.4392C13.7571 25.0872 13.5083 25.6944 13.0523 26.1504C12.4475 26.7544 11.5811 26.9808 10.7419 26.76C10.4651 26.6872 10.1731 26.7664 9.97228 26.9672L9.34428 27.5944C9.14268 27.796 9.06348 28.0896 9.13628 28.3648C9.35868 29.2072 9.13068 30.0704 8.52668 30.6752C8.07388 31.1272 7.47228 31.376 6.82908 31.376C6.82268 31.376 6.81628 31.3752 6.81068 31.376C6.51548 31.376 6.24428 31.5384 6.10508 31.7992C5.97548 32.0416 5.84668 32.224 5.69868 32.3712C4.76268 33.3072 3.24028 33.3072 2.30428 32.3712C1.36908 31.4352 1.36908 29.9128 2.30428 28.9768C2.61548 28.6648 2.61548 28.1584 2.30268 27.8464Z" fill="#E56400"/>
</g>
<defs>
<clipPath id="clip0">
<rect width="48" height="48" fill="white"/>
</clipPath>
</defs>
</svg>
